4. Exploratory data analysis (EDA) — DSCI 531<br>Data Visualization I
…
$ runtime   <dbl> 100, 143, 87, 151, 106, 119, 115, 178, 179, 201, 132, 101, 1…
$ revenue   <dbl> 940335536, 655011224, 527068851, 1065659812, 101371017, 7627…
$ budget    <dbl> 9.40e+07, 1.40e+08, 7.50e+07, 2.00e+08, 7.00e+07, 2.50e+07, …
$ genres    <named list> "Animation", "Fantasy", "Animation", "Fantasy", "Fant…
$ countries <named list> "United States of America", "United States of America…

%%R

movies_long <- movies |>
    select_if(is.numeric) |>
    pivot_longer(everything())  # To get only some columns we can write c(revenue, budget)

movies_long

# A tibble: 2,040 × 2

   name        value

   <chr>       <dbl>

 1 runtime       100

 2 revenue 940335536

 3 budget   94000000

 4 runtime       143

 5 revenue 655011224

 6 budget  140000000

 7 runtime        87

 8 revenue 527068851

 9 budget   75000000

10 runtime       151

# ℹ 2,030 more rows
…
